oj
…
read_delim (or read_csv or any of the others) tell you what variables were read in, and also tell you about any “parsing errors” where it couldn’t work out what was what. Here, we have three variables, which is entirely consistent with the three columns of data values in the file.

read_delim can handle data values separated by any character, not just spaces, but the separating character, known as a “delimiter”, does not have a default, so you have to say what it is, every time.

\(\blacksquare\)

Take a look at what got read in. Do you have data for all 24 runs?

Solution

Type the name of the data frame in a code chunk (a new one, or add it to the end of the previous one). Because this is actually a “tibble”, which is what read_delim reads in, you’ll only actually see the first 10 lines, but it will tell you how many lines there are altogether, and you can click on the appropriate thing to see the rest of it.

juice

# A tibble: 24 × 3
     run sweetness pectin
   <dbl>     <dbl>  <dbl>
 1     1       5.2    220
 2     2       5.5    227
 3     3       6      259
 4     4       5.9    210
 5     5       5.8    224
 6     6       6      215
 7     7       5.8    231
 8     8       5.6    268
 9     9       5.6    239
10    10       5.9    212
# ℹ 14 more rows
…
