Problems and Solutions in Applied Statistics (2nd ed) - 1 Getting used to R and R Studio
…
cars <- read_csv("cars.csv")

Rows: 38 Columns: 6
── Column specification ────────────────────────────────────────────────────────
Delimiter: ","
chr (2): Car, Country
dbl (4): MPG, Weight, Cylinders, Horsepower

ℹ Use `spec()` to retrieve the full column specification for this data.
ℹ Specify the column types or set `show_col_types = FALSE` to quiet this message.

cars

# A tibble: 38 × 6
   Car                  MPG Weight Cylinders Horsepower Country
   <chr>              <dbl>  <dbl>     <dbl>      <dbl> <chr>  
 1 Buick Skylark       28.4   2.67         4         90 U.S.   
 2 Dodge Omni          30.9   2.23         4         75 U.S.   
 3 Mercury Zephyr      20.8   3.07         6         85 U.S.   
 4 Fiat Strada         37.3   2.13         4         69 Italy  
 5 Peugeot 694 SL      16.2   3.41         6        133 France 
 6 VW Rabbit           31.9   1.92         4         71 Germany
 7 Plymouth Horizon    34.2   2.2          4         70 U.S.   
 8 Mazda GLC           34.1   1.98         4         65 Japan  
 9 Buick Estate Wagon  16.9   4.36         8        155 U.S.   
10 Audi 5000           20.3   2.83         5        103 Germany
# ℹ 28 more rows
…
Open the spreadsheet containing the data you want to read into R. If there are several sheets in the workbook, make sure you’re looking at the right one. Select File, Save As, select “CSV” or “comma-separated values” and give it a name. Save the resulting file somewhere.

Then read it into an R data frame. This uses read_csv; there are several read_ functions that read in different types of file, and you need to use an appropriate one. Before that, though, again run

f <- file.choose()

to find the .csv file on your computer, and then

cars <- read_csv(f)

to read it in. My spreadsheet was

cars

# A tibble: 38 × 6
   Car                  MPG Weight Cylinders Horsepower Country
   <chr>              <dbl>  <dbl>     <dbl>      <dbl> <chr>  
 1 Buick Skylark       28.4   2.67         4         90 U.S.   
 2 Dodge Omni          30.9   2.23         4         75 U.S.   
 3 Mercury Zephyr      20.8   3.07         6         85 U.S.   
 4 Fiat Strada         37.3   2.13         4         69 Italy  
 5 Peugeot 694 SL      16.2   3.41         6        133 France 
 6 VW Rabbit           31.9   1.92         4         71 Germany
 7 Plymouth Horizon    34.2   2.2          4         70 U.S.   
 8 Mazda GLC           34.1   1.98         4         65 Japan  
 9 Buick Estate Wagon  16.9   4.36         8        155 U.S.   
10 Audi 5000           20.3   2.83         5        103 Germany
# ℹ 28 more rows
…
mtcars

:::

# A tibble: 32 × 11
     mpg   cyl  disp    hp  drat    wt  qsec    vs    am  gear  carb
   <dbl> <dbl> <dbl> <dbl> <dbl> <dbl> <dbl> <dbl> <dbl> <dbl> <dbl>
 1  21       6  160    110  3.9   2.62  16.5     0     1     4     4
 2  21       6  160    110  3.9   2.88  17.0     0     1     4     4
 3  22.8     4  108     93  3.85  2.32  18.6     1     1     4     1
 4  21.4     6  258    110  3.08  3.22  19.4     1     0     3     1
 5  18.7     8  360    175  3.15  3.44  17.0     0     0     3     2
 6  18.1     6  225    105  2.76  3.46  20.2     1     0     3     1
 7  14.3     8  360    245  3.21  3.57  15.8     0     0     3     4
 8  24.4     4  147.    62  3.69  3.19  20       1     0     4     2
 9  22.8     4  141.    95  3.92  3.15  22.9     1     0     4     2
10  19.2     6  168.   123  3.92  3.44  18.3     1     0     4     4
# ℹ 22 more rows
…
:::

The second thing in read_delim is the thing that separates the data values. Often when you use read_delim it’ll be a space.

\(\blacksquare\)

Take a look at your data frame, by making a new code chunk and putting the data frame’s name in it (as we did with mtcars).

Solution

rats

# A tibble: 30 × 2
   group   density
   <chr>     <dbl>
 1 Control     611
 2 Control     621
 3 Control     614
 4 Control     593
 5 Control     593
 6 Control     653
 7 Control     600
 8 Control     554
 9 Control     603
10 Control     569
# ℹ 20 more rows
…
cars <- read_csv("cars.csv")

Rows: 38 Columns: 6
── Column specification ────────────────────────────────────────────────────────
Delimiter: ","
chr (2): Car, Country
dbl (4): MPG, Weight, Cylinders, Horsepower

ℹ Use `spec()` to retrieve the full column specification for this data.
ℹ Specify the column types or set `show_col_types = FALSE` to quiet this message.

cars

# A tibble: 38 × 6
   Car                  MPG Weight Cylinders Horsepower Country
   <chr>              <dbl>  <dbl>     <dbl>      <dbl> <chr>  
 1 Buick Skylark       28.4   2.67         4         90 U.S.   
 2 Dodge Omni          30.9   2.23         4         75 U.S.   
 3 Mercury Zephyr      20.8   3.07         6         85 U.S.   
 4 Fiat Strada         37.3   2.13         4         69 Italy  
 5 Peugeot 694 SL      16.2   3.41         6        133 France 
 6 VW Rabbit           31.9   1.92         4         71 Germany
 7 Plymouth Horizon    34.2   2.2          4         70 U.S.   
 8 Mazda GLC           34.1   1.98         4         65 Japan  
 9 Buick Estate Wagon  16.9   4.36         8        155 U.S.   
10 Audi 5000           20.3   2.83         5        103 Germany
# ℹ 28 more rows
…
Open the spreadsheet containing the data you want to read into R. If there are several sheets in the workbook, make sure you’re looking at the right one. Select File, Save As, select “CSV” or “comma-separated values” and give it a name. Save the resulting file somewhere.

Then read it into an R data frame. This uses read_csv; there are several read_ functions that read in different types of file, and you need to use an appropriate one. Before that, though, again run

f <- file.choose()

to find the .csv file on your computer, and then

cars <- read_csv(f)

to read it in. My spreadsheet was

cars

# A tibble: 38 × 6
   Car                  MPG Weight Cylinders Horsepower Country
   <chr>              <dbl>  <dbl>     <dbl>      <dbl> <chr>  
 1 Buick Skylark       28.4   2.67         4         90 U.S.   
 2 Dodge Omni          30.9   2.23         4         75 U.S.   
 3 Mercury Zephyr      20.8   3.07         6         85 U.S.   
 4 Fiat Strada         37.3   2.13         4         69 Italy  
 5 Peugeot 694 SL      16.2   3.41         6        133 France 
 6 VW Rabbit           31.9   1.92         4         71 Germany
 7 Plymouth Horizon    34.2   2.2          4         70 U.S.   
 8 Mazda GLC           34.1   1.98         4         65 Japan  
 9 Buick Estate Wagon  16.9   4.36         8        155 U.S.   
10 Audi 5000           20.3   2.83         5        103 Germany
# ℹ 28 more rows
…
