stan
…
Look in your data section, and see what you need to provide values for. The order doesn’t matter; make a list with the named pieces and their values, in some order. You need values for these four things:

binomial_data <- list(n = 277, x = 69, alpha = 2, beta = 2)

Extra: in case you are wondering where the parameters for the prior came from: in this case, I looked on the Wikipedia page for the beta distribution and saw that \(\alpha=\beta=2\) is a good shape, so I used that. In practice, getting a reasonable prior is a more difficult problem, called “elicitation”. What you have to do is ask a subject matter expert what they think p might be, giving you a range of values such as a guessed-at 95% confidence interval, like “I think p is almost certainly between 0.1 and 0.6”. Then you as a statistician have to choose values for alpha and beta that match this, probably by trial and error. The beta distribution is part of R, so this is doable, for example like this:

crossing(alpha = 1:10, beta = 1:10) %>%
  mutate(
    lower = qbeta(0.025, alpha, beta),
    upper = qbeta(0.975, alpha, beta)
  ) %>%
  mutate(sse = (lower - 0.1)^2 + (upper - 0.6)^2) %>%
  arrange(sse)

# A tibble: 100 × 5
   alpha  beta  lower upper      sse
   <int> <int>  <dbl> <dbl>    <dbl>
 1     4     8 0.109  0.610 0.000181
 2     3     7 0.0749 0.600 0.000632
 3     4     9 0.0992 0.572 0.000793
 4     5    10 0.128  0.581 0.00112 
 5     5     9 0.139  0.614 0.00169 
 6     3     6 0.0852 0.651 0.00280 
 7     3     8 0.0667 0.556 0.00303 
 8     4     7 0.122  0.652 0.00322 
 9     4    10 0.0909 0.538 0.00391 
10     6    10 0.163  0.616 0.00428 
# ℹ 90 more rows
…
The shape is very normal. This is because everything is normal: the prior and the data-generating process both, so it is not surprising at all that the posterior came out normal. (You may remember from your regression course that if you have a normal regression model, the slope also has a normal distribution.)

\(\blacksquare\)

What can we say about the vocabulary size of a randomly selected child of age 5 (a new one, not the one in the original data set)? Use an appropriate predictive distribution.

Solution

If you have done a regression course, you might recognize this as being the Bayesian version of a prediction interval. How might we make a predictive distribution for this? Well, first we need to extract the sampled values from the posteriors:

as_draws_df(reg.1$draws()) %>%
  as_tibble() -> sims
sims

# A tibble: 4,000 × 7
    lp__     a     b sigma .chain .iteration .draw
   <dbl> <dbl> <dbl> <dbl>  <int>      <int> <int>
 1  372. -670.  563.  215.      1          1     1
 2  372. -663.  564.  212.      1          2     2
 3  374. -699.  545.  206.      1          3     3
 4  375. -674.  539.  197.      1          4     4
 5  372. -730.  516.  199.      1          5     5
 6  375. -595.  528.  202.      1          6     6
 7  373. -647.  555.  202.      1          7     7
 8  374. -751.  541.  173.      1          8     8
 9  374. -605.  495.  180.      1          9     9
10  374. -573.  523.  172.      1         10    10
# ℹ 3,990 more rows

and now we need to simulate some response values for our notional child of age 5. That means simulating for an x of 5, using each of those values of a, b and sigma:

sims %>%
  rowwise() %>% 
  mutate(sim_vocab = rnorm(1, a + b * 5, sigma)) -> sims2
sims2

# A tibble: 4,000 × 8
# Rowwise: 
    lp__     a     b sigma .chain .iteration .draw sim_vocab
   <dbl> <dbl> <dbl> <dbl>  <int>      <int> <int>     <dbl>
 1  372. -670.  563.  215.      1          1     1     2264.
 2  372. -663.  564.  212.      1          2     2     1870.
 3  374. -699.  545.  206.      1          3     3     1941.
 4  375. -674.  539.  197.      1          4     4     1988.
 5  372. -730.  516.  199.      1          5     5     1847.
 6  375. -595.  528.  202.      1          6     6     2011.
 7  373. -647.  555.  202.      1          7     7     2077.
 8  374. -751.  541.  173.      1          8     8     2061.
 9  374. -605.  495.  180.      1          9     9     1621.
10  374. -573.  523.  172.      1         10    10     2112.
# ℹ 3,990 more rows
…
The way to obtain the (sampled) posterior predictive distribution is to get the posterior distribution of values of \(p\) in a dataframe, and make a new column as random values from the data-generating mechanism (here Bernoulli). This is easier to do and then talk about:

bern.2 %>% 
  as_tibble() %>% 
  mutate(x = rbernoulli(4000, p)) -> ppd

Warning: There was 1 warning in `mutate()`.
ℹ In argument: `x = rbernoulli(4000, p)`.
Caused by warning:
! `rbernoulli()` was deprecated in purrr 1.0.0.

ppd

# A tibble: 4,000 × 6
    lp__     p .chain .iteration .draw x    
   <dbl> <dbl>  <int>      <int> <int> <lgl>
 1 -8.38 0.492      1          1     1 TRUE 
 2 -9.05 0.426      1          2     2 TRUE 
 3 -7.74 0.604      1          3     3 FALSE
 4 -8.44 0.486      1          4     4 FALSE
 5 -9.31 0.405      1          5     5 TRUE 
 6 -8.14 0.525      1          6     6 FALSE
 7 -7.87 0.571      1          7     7 FALSE
 8 -7.89 0.757      1          8     8 TRUE 
 9 -7.95 0.768      1          9     9 TRUE 
10 -8.91 0.851      1         10    10 FALSE
# ℹ 3,990 more rows
…
which shows the majority of successes in the posterior predictive distribution. The idea is that the data and the posterior predictive distribution ought to be similar, and we did indeed have a majority of successes in our data as well.

You might have been perplexed by the 4000 in the code above. bernoulli is vectorized, meaning that if you give it a vector of values for p, it will generate Bernoulli trials for each one in turn, and the whole result should be 4000 values long altogether. We’ll see a way around that in a moment, but you could also do this using rbinom (random binomials) if you do it right:

bern.2 %>% 
  as_tibble() %>% 
  mutate(x = rbinom(4000, 1, p)) 

# A tibble: 4,000 × 6
    lp__     p .chain .iteration .draw     x
   <dbl> <dbl>  <int>      <int> <int> <int>
 1 -8.38 0.492      1          1     1     1
 2 -9.05 0.426      1          2     2     0
 3 -7.74 0.604      1          3     3     1
 4 -8.44 0.486      1          4     4     0
 5 -9.31 0.405      1          5     5     1
 6 -8.14 0.525      1          6     6     1
 7 -7.87 0.571      1          7     7     1
 8 -7.89 0.757      1          8     8     0
 9 -7.95 0.768      1          9     9     0
10 -8.91 0.851      1         10    10     1
# ℹ 3,990 more rows

There are 4000 random binomials altogether, and each one has one trial. This is confusing, and a less confusing way around this is to work one row at time with rowwise:

bern.2 %>% 
  as_tibble() %>% 
  rowwise() %>% 
  mutate(x = rbernoulli(1, p))

# A tibble: 4,000 × 6
# Rowwise: 
    lp__     p .chain .iteration .draw x    
   <dbl> <dbl>  <int>      <int> <int> <lgl>
 1 -8.38 0.492      1          1     1 FALSE
 2 -9.05 0.426      1          2     2 TRUE 
 3 -7.74 0.604      1          3     3 FALSE
 4 -8.44 0.486      1          4     4 TRUE 
 5 -9.31 0.405      1          5     5 FALSE
 6 -8.14 0.525      1          6     6 FALSE
 7 -7.87 0.571      1          7     7 TRUE 
 8 -7.89 0.757      1          8     8 TRUE 
 9 -7.95 0.768      1          9     9 FALSE
10 -8.91 0.851      1         10    10 TRUE 
# ℹ 3,990 more rows

or

bern.2 %>% 
  as_tibble() %>% 
  rowwise() %>%
  mutate(x = rbinom(1, 1, p)) 

# A tibble: 4,000 × 6
# Rowwise: 
    lp__     p .chain .iteration .draw     x
   <dbl> <dbl>  <int>      <int> <int> <int>
 1 -8.38 0.492      1          1     1     1
 2 -9.05 0.426      1          2     2     0
 3 -7.74 0.604      1          3     3     1
 4 -8.44 0.486      1          4     4     0
 5 -9.31 0.405      1          5     5     0
 6 -8.14 0.525      1          6     6     1
 7 -7.87 0.571      1          7     7     1
 8 -7.89 0.757      1          8     8     1
 9 -7.95 0.768      1          9     9     1
10 -8.91 0.851      1         10    10     1
# ℹ 3,990 more rows
…
$n
[1] 6

Knowing that Stan only has real and int, it labels the groups with numbers, and keeps track of how many groups there are as well as how many observations. These are all things that Stan needs to know. See slides 32 and 34 of my lecture notes, where I prepare to fit an ANOVA model. The tidybayes way is, I have to say, much cleaner than the way I did it in the lecture notes. After you have fitted the model, tidybayes lets you go back and re-associate the real group names with the ones Stan used, so that you could get a posterior mean and interval for each of the two groups.

After obtaining the posterior distribution, tidybayes also helps in understanding it. This is how you get hold of the sampled values. Install laRs using

devtools::install_github("Agasax/laRs")

library(laRs) 
bern.2 %>% 
  spread_draws(p)

# A tibble: 4,000 × 4
   .chain .iteration .draw     p
    <int>      <int> <int> <dbl>
 1      1          1     1 0.492
 2      1          2     2 0.426
 3      1          3     3 0.604
 4      1          4     4 0.486
 5      1          5     5 0.405
 6      1          6     6 0.525
 7      1          7     7 0.571
 8      1          8     8 0.757
 9      1          9     9 0.768
10      1         10    10 0.851
# ℹ 3,990 more rows
…
